<?xml version="1.0" encoding="utf-8"?>
<!-- Generator: Adobe Illustrator 22.0.0, SVG Export Plug-In . SVG Version: 6.00 Build 0)  -->
<svg version="1.1" id="Layer_1" xmlns="http://www.w3.org/2000/svg" xmlns:xlink="http://www.w3.org/1999/xlink" x="0px" y="0px"
	 viewBox="0 0 576 576" style="enable-background:new 0 0 576 576;" xml:space="preserve">
<style type="text/css">
	.st0{fill:#FFFFFF;}
</style>
<path class="st0" d="M254.5,261.5c-123,54-259,76-230-2s90-106,90-106c3,10-3,14-3,14c-60,38-74,88-74,88c-26,94,225-8,225-8
	s36-81,40-95s12-16,12-16c15-3-33,102-33,102c151-67,234-155,164-178s-277,59-277,59s38-35,188-70s156,47,79,111l-58,41
	c0,0,30-11,74,26c0,0,38-5,100-14c0,0,3,4,4,8s-7,6-95,17c0,0,50,56-153,149c0,0-15,7,7-13c0,0,169-84,130-134l-61,13c0,0-9-5-3-13
	l53-10c0,0-34-32-97-6l-63,30c0,0-74,130-79,170c0,0-3.5,6.5-9.5,9.5l-6.5-9.5C178.5,424.5,182.5,399.5,254.5,261.5z"/>
<g>
	<path class="st0" d="M80.9,502.8c-3.3,0-5.8-1-7.5-2.9c-1.7-2-2.5-4.4-2.5-7.3c0-7.5,0.8-14.8,2.3-22.1c1.2-5.7,2.8-9.6,5-11.5
		c2-1.8,4.6-2.7,7.9-2.7c3.3,0,5.8,1,7.4,3c1.7,2,2.5,4.4,2.5,7.3s-0.2,6.4-0.6,10.5c-0.4,4.1-0.8,7.5-1.4,10.3
		c-0.5,2.7-1,4.7-1.4,6s-0.9,2.5-1.6,3.8c-0.7,1.3-1.4,2.3-2.3,3.1C86.8,501.9,84.2,502.8,80.9,502.8z M81.6,495.9
		c2.5,0,4.1-2.3,4.8-6.9c0.5-3,0.9-6.8,1.4-11.3s0.7-7.7,0.7-9.5s-0.3-3.1-0.9-3.9c-0.6-0.8-1.4-1.1-2.5-1.1c-2.3,0-3.8,2.3-4.6,6.9
		c-0.5,2.7-0.9,6.4-1.4,11s-0.7,7.9-0.7,9.8s0.3,3.2,0.9,4S80.7,495.9,81.6,495.9z"/>
	<path class="st0" d="M106.1,457.1c0.1-0.1,1.1-0.2,3-0.4s4.4-0.3,7.7-0.3c3.3,0,5.8,0.9,7.5,2.8s2.6,4.5,2.6,7.7
		c0,6.2-0.7,13.3-2.1,21.4c-0.7,4.3-1.9,7.5-3.6,9.6c-1.5,1.9-3.9,3.2-7.1,3.8c-1.5,0.3-3.3,0.4-5.4,0.5l-7.3,0.3
		c-0.4,0-0.6-0.2-0.6-0.6l5.1-44.3C105.9,457.4,106,457.2,106.1,457.1z M112.6,463.3l-3.6,31.9c2.9-0.3,4.9-0.8,6-1.7
		c1.1-0.9,1.9-2.5,2.4-5c0.4-2.5,0.9-5.8,1.3-10.1s0.7-7.7,0.7-10.5c0-1.6-0.4-2.8-1.2-3.6c-0.8-0.8-1.8-1.2-3.2-1.2
		C113.7,463.2,112.9,463.2,112.6,463.3z"/>
	<path class="st0" d="M150.5,482.3l-9.1,0.4l-1.4,12l11.2-0.4c0.5,0,0.8,0.3,0.8,0.8l-0.8,6.1c0,0.4-0.3,0.7-0.8,0.8l-18,0.6
		c-0.4,0-0.6-0.2-0.6-0.6l5.1-44.3c0.1-0.4,0.3-0.6,0.8-0.7l16.1-0.6c0.5,0.1,0.7,0.3,0.7,0.8l-0.7,6.1c-0.1,0.5-0.3,0.8-0.8,0.8
		l-9.4,0.3l-1.3,10.9l9-0.3c0.5,0,0.8,0.3,0.8,0.8l-0.8,6C151.1,482.1,150.9,482.3,150.5,482.3z"/>
	<path class="st0" d="M170.7,457.4l-4.2,37.2l11.2-0.4c0.5,0,0.8,0.3,0.8,0.8l-0.8,6.1c-0.1,0.5-0.3,0.8-0.8,0.8l-18,0.6
		c-0.4,0-0.6-0.2-0.6-0.6l5-44.3c0-0.2,0.1-0.4,0.2-0.5s0.3-0.2,0.5-0.2l5.9-0.2C170.4,456.8,170.7,457,170.7,457.4z"/>
	<path class="st0" d="M196.6,457.4l-4.2,37.2l11.2-0.4c0.5,0,0.8,0.3,0.8,0.8l-0.8,6.1c-0.1,0.5-0.3,0.8-0.8,0.8l-18,0.6
		c-0.4,0-0.6-0.2-0.6-0.6l5-44.3c0-0.2,0.1-0.4,0.2-0.5s0.3-0.2,0.5-0.2l5.9-0.2C196.4,456.8,196.6,457,196.6,457.4z"/>
	<path class="st0" d="M248.1,465.9c0,5.8-2.2,9.8-6.7,12c1.5,0.6,2.7,1.6,3.6,3c0.9,1.3,1.3,3.1,1.3,5.1s-0.3,4.1-0.9,5.9
		s-1.6,3.6-2.9,5.1c-2.7,3.2-7.1,5-13,5.2l-6.3,0.2c-0.4,0-0.6-0.2-0.6-0.6l5-44.1c0-0.4,0.1-0.6,0.3-0.7c0.1-0.1,1.4-0.3,3.7-0.4
		c2.3-0.2,4.5-0.2,6.6-0.2c3.5,0,6.1,0.8,7.7,2.5C247.3,460.7,248.1,463,248.1,465.9z M233.8,480.9c-0.8,0-1.3,0-1.6,0l-1.6,14.3
		c2.8,0,4.9-0.9,6.3-2.7s2.2-4.1,2.2-7c0-1.4-0.5-2.5-1.4-3.3S235.5,480.9,233.8,480.9z M232.7,476.3c5.6,0,8.4-3,8.4-8.9
		c0-3.1-1.6-4.7-4.8-4.7c-0.9,0-1.6,0-2.1,0.1L232.7,476.3z"/>
	<path class="st0" d="M270.8,482.3l-9.1,0.4l-1.4,12l11.2-0.4c0.5,0,0.8,0.3,0.8,0.8l-0.8,6.1c0,0.4-0.3,0.7-0.8,0.8l-18,0.6
		c-0.4,0-0.6-0.2-0.6-0.6l5.1-44.3c0.1-0.4,0.3-0.6,0.8-0.7l16.1-0.6c0.5,0.1,0.7,0.3,0.7,0.8l-0.7,6.1c-0.1,0.5-0.3,0.8-0.8,0.8
		l-9.4,0.3l-1.3,10.9l9-0.3c0.5,0,0.8,0.3,0.8,0.8l-0.8,6C271.4,482.1,271.2,482.3,270.8,482.3z"/>
	<path class="st0" d="M297.2,501.6c-0.1,0.1-1.1,0.3-2.9,0.6s-3.7,0.5-5.5,0.5c-3,0-5.4-1-7-3c-1.6-2-2.4-4.7-2.4-8.1
		c0-6,0.7-13,2.2-21c0.8-4.3,1.7-7.3,2.8-9.1c1.2-1.8,2.6-3.1,4.2-3.8c2.1-0.9,4.2-1.3,6.6-1.3s3.9,0.1,4.7,0.2s1.2,0.2,1.3,0.2
		c0.3,0.1,0.4,0.3,0.4,0.7l-0.7,5.4c-0.1,0.5-0.3,0.8-0.6,0.8c-0.3,0-1-0.1-2.2-0.2c-1.1-0.2-2.1-0.2-2.8-0.2
		c-1.9,0-3.3,0.5-4.3,1.4c-1,0.9-1.7,2.8-2.2,5.4c-0.5,2.7-0.9,6.3-1.4,10.8c-0.4,4.5-0.7,8-0.7,10.4c0,2.8,1.2,4.2,3.8,4.2
		c0.7,0,2-0.1,3.8-0.4c1.8-0.2,2.8-0.4,3.1-0.4c0.4,0,0.6,0.2,0.6,0.7l-0.7,5.4C297.4,501.3,297.3,501.5,297.2,501.6z"/>
	<path class="st0" d="M328.1,501.8c0,0.3-0.3,0.5-0.8,0.5l-6.3,0.2c-0.3,0-0.5-0.2-0.6-0.6l-6.3-21.9l-2.4,21.6
		c-0.1,0.5-0.3,0.7-0.8,0.7l-6,0.2c-0.4,0-0.6-0.2-0.6-0.6l5-44.3c0-0.2,0.1-0.4,0.2-0.5s0.3-0.2,0.5-0.2l5.9-0.2
		c0.5,0,0.8,0.3,0.8,0.7l-2.2,19.7l8.5-19.5c0.2-0.4,0.5-0.7,0.9-0.7l6.1-0.2c0.5,0,0.8,0.2,0.8,0.6c0,0.2-0.1,0.5-0.2,0.8L321,478
		l7.1,23.4C328.1,501.5,328.1,501.6,328.1,501.8z"/>
	<path class="st0" d="M360.1,457.4l-5,44.2c-0.1,0.4-0.3,0.7-0.7,0.7l-6,0.2c-0.4,0-0.6-0.2-0.6-0.6l2.2-19.2l-7.4,0.3l-2.1,18.6
		c-0.1,0.5-0.3,0.7-0.8,0.7l-6,0.2c-0.4,0-0.6-0.2-0.6-0.6l5-44.3c0.1-0.4,0.3-0.6,0.8-0.7l5.9-0.2c0.5,0,0.8,0.3,0.8,0.7l-2.1,18.7
		l7.5-0.3l2.1-18.2c0.1-0.4,0.3-0.7,0.8-0.7l5.9-0.2C359.8,456.7,360.1,457,360.1,457.4z"/>
	<path class="st0" d="M382.4,457.4l3.4,44.1c0,0.4-0.3,0.7-0.8,0.7l-6.1,0.2c-0.4,0-0.6-0.2-0.6-0.6l-0.4-9.7l-6.7,0.3l-2.2,9
		c-0.1,0.3-0.1,0.5-0.2,0.6c-0.1,0.1-0.3,0.2-0.5,0.2l-6.1,0.2c-0.4,0-0.6-0.2-0.6-0.6l12.9-44.3c0.1-0.4,0.4-0.7,0.8-0.7l6.4-0.2
		C382.1,456.7,382.3,457,382.4,457.4z M376.8,469.5l-4.1,16.8l4.9-0.2L376.8,469.5z"/>
	<path class="st0" d="M403.9,501.9l-2.5-35.1l-2.2,34.7c0,0.5-0.3,0.7-0.8,0.8l-5.6,0.2c-0.4,0-0.6-0.2-0.6-0.6l5-44.3
		c0-0.2,0.1-0.4,0.2-0.5s0.3-0.2,0.6-0.2l7.4-0.3c0.5,0,0.7,0.3,0.8,0.7l2.7,35.3l10.2-35c0.1-0.4,0.4-0.7,0.8-0.7l7.7-0.3
		c0.5,0,0.7,0.3,0.7,0.7l-5,44.2c-0.1,0.5-0.3,0.7-0.8,0.7l-6,0.2c-0.4,0-0.6-0.2-0.6-0.6l5.7-35.7L411,501.6
		c-0.2,0.4-0.4,0.7-0.8,0.7l-5.7,0.2C404.1,502.5,403.9,502.3,403.9,501.9z"/>
	<path class="st0" d="M461.4,457.4l-3.6,32.1c-0.5,5-2.2,8.5-5,10.4c-2.6,1.8-6.2,2.7-10.8,2.7c-0.5,0-0.7-0.2-0.7-0.7l0.7-5.7
		c0.1-0.5,0.3-0.7,0.7-0.7c3.6,0,5.8-0.8,6.8-2.4c0.4-0.7,0.7-1.7,0.9-3l3.7-32.6c0-0.2,0.1-0.4,0.2-0.5s0.3-0.2,0.5-0.2l5.9-0.2
		C461.1,456.8,461.4,457,461.4,457.4z"/>
	<path class="st0" d="M489.9,501.7c0,0.4-0.3,0.6-0.8,0.6l-6.6,0.2c-0.3,0-0.5-0.2-0.6-0.6l-7.4-18.6l-2.1,18.3
		c-0.1,0.5-0.3,0.7-0.7,0.7l-6.1,0.2c-0.4,0-0.6-0.2-0.6-0.6l5.1-44.1c0-0.4,0.1-0.6,0.3-0.7s1.2-0.3,3.1-0.4s4.5-0.2,7.7-0.2
		s5.7,0.9,7.5,2.6s2.6,3.9,2.6,6.6s-0.3,5.1-1,7.1s-1.7,3.9-3.2,5.6s-3.3,2.9-5.6,3.7l8.3,19.4C489.9,501.4,489.9,501.6,489.9,501.7
		z M476.8,463.3l-1.6,14.6c3.6-0.2,6.1-1.9,7.5-4.9c0.7-1.7,1.1-3.4,1.1-5.1s-0.4-2.9-1.1-3.6s-1.7-1-3.1-1S477.3,463.2,476.8,463.3
		z"/>
	<path class="st0" d="M499.1,502.7c-1.3,0-2.3-0.4-3.1-1.2s-1.2-1.8-1.2-3.1s0.5-2.4,1.5-3.4s2.2-1.5,3.5-1.5s2.3,0.4,3.1,1.2
		s1.2,1.8,1.2,3.1s-0.5,2.4-1.6,3.4S500.4,502.7,499.1,502.7z"/>
</g>
</svg>
